<?xml version="1.0" encoding="UTF-8" standalone="no"?>
<!-- Created with Inkscape (http://www.inkscape.org/) -->

<svg
   width="1920"
   height="1080"
   viewBox="0 0 1920 1080"
   version="1.1"
   id="svg5"
   inkscape:version="1.3-dev (4631277b66, 2023-02-24, custom)"
   sodipodi:docname="Halftones.svg"
   xmlns:inkscape="http://www.inkscape.org/namespaces/inkscape"
   xmlns:sodipodi="http://sodipodi.sourceforge.net/DTD/sodipodi-0.dtd"
   xmlns:xlink="http://www.w3.org/1999/xlink"
   xmlns="http://www.w3.org/2000/svg"
   xmlns:svg="http://www.w3.org/2000/svg">
  <sodipodi:namedview
     id="namedview7"
     pagecolor="#ffffff"
     bordercolor="#000000"
     borderopacity="0.25"
     inkscape:showpageshadow="false"
     inkscape:pageopacity="0.0"
     inkscape:pagecheckerboard="0"
     inkscape:deskcolor="#d1d1d1"
     inkscape:document-units="px"
     showgrid="false"
     inkscape:zoom="0.6180637"
     inkscape:cx="691.67628"
     inkscape:cy="540.39737"
     inkscape:window-width="1858"
     inkscape:window-height="1177"
     inkscape:window-x="1912"
     inkscape:window-y="-8"
     inkscape:window-maximized="1"
     inkscape:current-layer="layer1" />
  <defs
     id="defs2">
    <pattern
       inkscape:collect="always"
       xlink:href="#halftones"
       preserveAspectRatio="xMidYMid"
       id="pattern33"
       patternTransform="translate(355.02715,-448.34213)" />
    <pattern
       patternUnits="userSpaceOnUse"
       width="10"
       height="10"
       preserveAspectRatio="xMidYMid"
       style="fill:#000000"
       id="halftones"
       x="0"
       y="0"
       inkscape:label="Halftones">
      <g
         id="fullPattern"
         style="display:inline"
         transform="scale(0.1)">
        <circle
           style="fill-opacity:1;stroke:none;paint-order:markers fill stroke;stop-color:#000000"
           id="circle10"
           cx="50"
           cy="50"
           r="25" />
        <path
           id="circle37"
           style="paint-order:markers fill stroke"
           d="M 25,0 A 25,25 0 0 1 0,25 25,25 0 0 1 -25,0 25,25 0 0 1 0,-25 25,25 0 0 1 25,0 Z" />
        <path
           id="circle39"
           style="paint-order:markers fill stroke"
           d="M 125,0 A 25,25 0 0 1 100,25 25,25 0 0 1 75,0 25,25 0 0 1 100,-25 25,25 0 0 1 125,0 Z" />
        <path
           id="circle43"
           style="paint-order:markers fill stroke"
           d="M 25,100 A 25,25 0 0 1 0,125 25,25 0 0 1 -25,100 25,25 0 0 1 0,75 25,25 0 0 1 25,100 Z" />
        <path
           id="circle45"
           style="paint-order:markers fill stroke"
           d="m 125,100 a 25,25 0 0 1 -25,25 25,25 0 0 1 -25,-25 25,25 0 0 1 25,-25 25,25 0 0 1 25,25 z" />
      </g>
    </pattern>
    <pattern
       inkscape:collect="always"
       xlink:href="#Packedcircles"
       id="pattern96371"
       patternTransform="matrix(10,0,0,10,275.02715,-416.34213)"
       x="0"
       y="0"
       preserveAspectRatio="none" />
    <pattern
       inkscape:collect="always"
       patternUnits="userSpaceOnUse"
       width="1"
       height="1.73205080756"
       patternTransform="translate(0,0) scale(10,10)"
       preserveAspectRatio="xMidYMid"
       style="fill:#000000"
       id="packed-circles"
       inkscape:stockid="Packed circles"
       inkscape:label="Packed circles">
      <circle
         style="stroke:none"
         cx="0"
         cy="0.5"
         r="0.5"
         id="circle219" />
      <circle
         style="stroke:none"
         cx="1"
         cy="0.5"
         r="0.5"
         id="circle221" />
      <circle
         style="stroke:none"
         cx="0.5"
         cy="1.36602540378"
         r="0.5"
         id="circle223" />
      <circle
         style="stroke:none"
         cx="0.5"
         cy="-0.366025403784"
         r="0.5"
         id="circle225" />
    </pattern>
    <pattern
       inkscape:collect="always"
       xlink:href="#Polkadots-small"
       id="pattern96373"
       patternTransform="matrix(10,0,0,10,234.43422,403.71287)" />
    <pattern
       patternUnits="userSpaceOnUse"
       width="10"
       height="10"
       patternTransform="scale(10)"
       preserveAspectRatio="none"
       style="fill:#000000"
       id="Polkadots-small"
       inkscape:stockid="Polka dots, small"
       x="0"
       y="0"
       inkscape:label="Polka dots small">
      <circle
         style="stroke:none"
         cx="2.567"
         cy="0.810"
         r="0.05"
         id="circle228" />
      <circle
         style="stroke:none"
         cx="3.048"
         cy="2.33"
         r="0.05"
         id="circle230" />
      <circle
         style="stroke:none"
         cx="4.418"
         cy="2.415"
         r="0.05"
         id="circle232" />
      <circle
         style="stroke:none"
         cx="1.844"
         cy="3.029"
         r="0.05"
         id="circle234" />
      <circle
         style="stroke:none"
         cx="6.08"
         cy="1.363"
         r="0.05"
         id="circle236" />
      <circle
         style="stroke:none"
         cx="5.819"
         cy="4.413"
         r="0.05"
         id="circle238" />
      <circle
         style="stroke:none"
         cx="4.305"
         cy="4.048"
         r="0.05"
         id="circle240" />
      <circle
         style="stroke:none"
         cx="5.541"
         cy="3.045"
         r="0.05"
         id="circle242" />
      <circle
         style="stroke:none"
         cx="4.785"
         cy="5.527"
         r="0.05"
         id="circle244" />
      <circle
         style="stroke:none"
         cx="2.667"
         cy="5.184"
         r="0.05"
         id="circle246" />
      <circle
         style="stroke:none"
         cx="7.965"
         cy="1.448"
         r="0.05"
         id="circle248" />
      <circle
         style="stroke:none"
         cx="7.047"
         cy="5.049"
         r="0.05"
         id="circle250" />
      <circle
         style="stroke:none"
         cx="4.340"
         cy="0.895"
         r="0.05"
         id="circle252" />
      <circle
         style="stroke:none"
         cx="7.125"
         cy="0.340"
         r="0.05"
         id="circle254" />
      <circle
         style="stroke:none"
         cx="9.550"
         cy="1.049"
         r="0.05"
         id="circle256" />
      <circle
         style="stroke:none"
         cx="7.006"
         cy="2.689"
         r="0.05"
         id="circle258" />
      <circle
         style="stroke:none"
         cx="8.909"
         cy="2.689"
         r="0.05"
         id="circle260" />
      <circle
         style="stroke:none"
         cx="9.315"
         cy="4.407"
         r="0.05"
         id="circle262" />
      <circle
         style="stroke:none"
         cx="7.820"
         cy="3.870"
         r="0.05"
         id="circle264" />
      <circle
         style="stroke:none"
         cx="8.270"
         cy="5.948"
         r="0.05"
         id="circle266" />
      <circle
         style="stroke:none"
         cx="7.973"
         cy="7.428"
         r="0.05"
         id="circle268" />
      <circle
         style="stroke:none"
         cx="9.342"
         cy="8.072"
         r="0.05"
         id="circle270" />
      <circle
         style="stroke:none"
         cx="8.206"
         cy="9.315"
         r="0.05"
         id="circle272" />
      <circle
         style="stroke:none"
         cx="9.682"
         cy="9.475"
         r="0.05"
         id="circle274" />
      <circle
         style="stroke:none"
         cx="9.688"
         cy="6.186"
         r="0.05"
         id="circle276" />
      <circle
         style="stroke:none"
         cx="3.379"
         cy="6.296"
         r="0.05"
         id="circle278" />
      <circle
         style="stroke:none"
         cx="2.871"
         cy="8.204"
         r="0.05"
         id="circle280" />
      <circle
         style="stroke:none"
         cx="4.59"
         cy="8.719"
         r="0.05"
         id="circle282" />
      <circle
         style="stroke:none"
         cx="3.181"
         cy="9.671"
         r="0.05"
         id="circle284" />
      <circle
         style="stroke:none"
         cx="5.734"
         cy="7.315"
         r="0.05"
         id="circle286" />
      <circle
         style="stroke:none"
         cx="6.707"
         cy="6.513"
         r="0.05"
         id="circle288" />
      <circle
         style="stroke:none"
         cx="5.730"
         cy="9.670"
         r="0.05"
         id="circle290" />
      <circle
         style="stroke:none"
         cx="6.535"
         cy="8.373"
         r="0.05"
         id="circle292" />
      <circle
         style="stroke:none"
         cx="4.37"
         cy="7.154"
         r="0.05"
         id="circle294" />
      <circle
         style="stroke:none"
         cx="0.622"
         cy="7.25"
         r="0.05"
         id="circle296" />
      <circle
         style="stroke:none"
         cx="0.831"
         cy="5.679"
         r="0.05"
         id="circle298" />
      <circle
         style="stroke:none"
         cx="1.257"
         cy="8.519"
         r="0.05"
         id="circle300" />
      <circle
         style="stroke:none"
         cx="1.989"
         cy="6.877"
         r="0.05"
         id="circle302" />
      <circle
         style="stroke:none"
         cx="0.374"
         cy="3.181"
         r="0.05"
         id="circle304" />
      <circle
         style="stroke:none"
         cx="1.166"
         cy="1.664"
         r="0.05"
         id="circle306" />
      <circle
         style="stroke:none"
         cx="1.151"
         cy="0.093"
         r="0.05"
         id="circle308" />
      <circle
         style="stroke:none"
         cx="1.151"
         cy="10.093"
         r="0.05"
         id="circle310" />
      <circle
         style="stroke:none"
         cx="1.302"
         cy="4.451"
         r="0.05"
         id="circle312" />
      <circle
         style="stroke:none"
         cx="3.047"
         cy="3.763"
         r="0.05"
         id="circle314" />
    </pattern>
    <pattern
       inkscape:collect="always"
       xlink:href="#Polkadots-med"
       id="pattern96377"
       patternTransform="matrix(10,0,0,10,234.43422,403.71287)" />
    <pattern
       patternUnits="userSpaceOnUse"
       width="10"
       height="10"
       patternTransform="translate(0,0) scale(10,10)"
       preserveAspectRatio="xMidYMid"
       id="Polkadots-med"
       inkscape:stockid="Polka dots, medium"
       inkscape:label="Polka dots medium">
      <circle
         style="stroke:none"
         cx="2.567"
         cy="0.810"
         r="0.15"
         id="circle406" />
      <circle
         style="stroke:none"
         cx="3.048"
         cy="2.33"
         r="0.15"
         id="circle408" />
      <circle
         style="stroke:none"
         cx="4.418"
         cy="2.415"
         r="0.15"
         id="circle410" />
      <circle
         style="stroke:none"
         cx="1.844"
         cy="3.029"
         r="0.15"
         id="circle412" />
      <circle
         style="stroke:none"
         cx="6.08"
         cy="1.363"
         r="0.15"
         id="circle414" />
      <circle
         style="stroke:none"
         cx="5.819"
         cy="4.413"
         r="0.15"
         id="circle416" />
      <circle
         style="stroke:none"
         cx="4.305"
         cy="4.048"
         r="0.15"
         id="circle418" />
      <circle
         style="stroke:none"
         cx="5.541"
         cy="3.045"
         r="0.15"
         id="circle420" />
      <circle
         style="stroke:none"
         cx="4.785"
         cy="5.527"
         r="0.15"
         id="circle422" />
      <circle
         style="stroke:none"
         cx="2.667"
         cy="5.184"
         r="0.15"
         id="circle424" />
      <circle
         style="stroke:none"
         cx="7.965"
         cy="1.448"
         r="0.15"
         id="circle426" />
      <circle
         style="stroke:none"
         cx="7.047"
         cy="5.049"
         r="0.15"
         id="circle428" />
      <circle
         style="stroke:none"
         cx="4.340"
         cy="0.895"
         r="0.15"
         id="circle430" />
      <circle
         style="stroke:none"
         cx="7.125"
         cy="0.340"
         r="0.15"
         id="circle432" />
      <circle
         style="stroke:none"
         cx="9.550"
         cy="1.049"
         r="0.15"
         id="circle434" />
      <circle
         style="stroke:none"
         cx="7.006"
         cy="2.689"
         r="0.15"
         id="circle436" />
      <circle
         style="stroke:none"
         cx="8.909"
         cy="2.689"
         r="0.15"
         id="circle438" />
      <circle
         style="stroke:none"
         cx="9.315"
         cy="4.407"
         r="0.15"
         id="circle440" />
      <circle
         style="stroke:none"
         cx="7.820"
         cy="3.870"
         r="0.15"
         id="circle442" />
      <circle
         style="stroke:none"
         cx="8.270"
         cy="5.948"
         r="0.15"
         id="circle444" />
      <circle
         style="stroke:none"
         cx="7.973"
         cy="7.428"
         r="0.15"
         id="circle446" />
      <circle
         style="stroke:none"
         cx="9.342"
         cy="8.072"
         r="0.15"
         id="circle448" />
      <circle
         style="stroke:none"
         cx="8.206"
         cy="9.315"
         r="0.15"
         id="circle450" />
      <circle
         style="stroke:none"
         cx="9.682"
         cy="9.475"
         r="0.15"
         id="circle452" />
      <circle
         style="stroke:none"
         cx="9.688"
         cy="6.186"
         r="0.15"
         id="circle454" />
      <circle
         style="stroke:none"
         cx="3.379"
         cy="6.296"
         r="0.15"
         id="circle456" />
      <circle
         style="stroke:none"
         cx="2.871"
         cy="8.204"
         r="0.15"
         id="circle458" />
      <circle
         style="stroke:none"
         cx="4.59"
         cy="8.719"
         r="0.15"
         id="circle460" />
      <circle
         style="stroke:none"
         cx="3.181"
         cy="9.671"
         r="0.15"
         id="circle462" />
      <circle
         style="stroke:none"
         cx="5.734"
         cy="7.315"
         r="0.15"
         id="circle464" />
      <circle
         style="stroke:none"
         cx="6.707"
         cy="6.513"
         r="0.15"
         id="circle466" />
      <circle
         style="stroke:none"
         cx="5.730"
         cy="9.670"
         r="0.15"
         id="circle468" />
      <circle
         style="stroke:none"
         cx="6.535"
         cy="8.373"
         r="0.15"
         id="circle470" />
      <circle
         style="stroke:none"
         cx="4.37"
         cy="7.154"
         r="0.15"
         id="circle472" />
      <circle
         style="stroke:none"
         cx="0.622"
         cy="7.25"
         r="0.15"
         id="circle474" />
      <circle
         style="stroke:none"
         cx="0.831"
         cy="5.679"
         r="0.15"
         id="circle476" />
      <circle
         style="stroke:none"
         cx="1.257"
         cy="8.519"
         r="0.15"
         id="circle478" />
      <circle
         style="stroke:none"
         cx="1.989"
         cy="6.877"
         r="0.15"
         id="circle480" />
      <circle
         style="stroke:none"
         cx="0.374"
         cy="3.181"
         r="0.15"
         id="circle482" />
      <circle
         style="stroke:none"
         cx="1.166"
         cy="1.664"
         r="0.15"
         id="circle484" />
      <circle
         style="stroke:none"
         cx="1.151"
         cy="0.093"
         r="0.15"
         id="circle486" />
      <circle
         style="stroke:none"
         cx="1.151"
         cy="10.093"
         r="0.15"
         id="circle488" />
      <circle
         style="stroke:none"
         cx="1.302"
         cy="4.451"
         r="0.15"
         id="circle490" />
      <circle
         style="stroke:none"
         cx="3.047"
         cy="3.763"
         r="0.15"
         id="circle492" />
    </pattern>
    <pattern
       inkscape:collect="always"
       xlink:href="#Polkadots-large"
       id="pattern96381"
       patternTransform="matrix(10,0,0,10,234.43422,403.71287)" />
    <pattern
       patternUnits="userSpaceOnUse"
       width="10"
       height="10"
       patternTransform="translate(0,0) scale(10,10)"
       preserveAspectRatio="xMidYMid"
       id="Polkadots-large"
       inkscape:stockid="Polka dots, large"
       inkscape:label="Polka dots large">
      <circle
         style="stroke:none"
         cx="2.567"
         cy="0.810"
         r="0.45"
         id="circle584" />
      <circle
         style="stroke:none"
         cx="3.048"
         cy="2.33"
         r="0.45"
         id="circle586" />
      <circle
         style="stroke:none"
         cx="4.418"
         cy="2.415"
         r="0.45"
         id="circle588" />
      <circle
         style="stroke:none"
         cx="1.844"
         cy="3.029"
         r="0.45"
         id="circle590" />
      <circle
         style="stroke:none"
         cx="6.08"
         cy="1.363"
         r="0.45"
         id="circle592" />
      <circle
         style="stroke:none"
         cx="5.819"
         cy="4.413"
         r="0.45"
         id="circle594" />
      <circle
         style="stroke:none"
         cx="4.305"
         cy="4.048"
         r="0.45"
         id="circle596" />
      <circle
         style="stroke:none"
         cx="5.541"
         cy="3.045"
         r="0.45"
         id="circle598" />
      <circle
         style="stroke:none"
         cx="4.785"
         cy="5.527"
         r="0.45"
         id="circle600" />
      <circle
         style="stroke:none"
         cx="2.667"
         cy="5.184"
         r="0.45"
         id="circle602" />
      <circle
         style="stroke:none"
         cx="7.965"
         cy="1.448"
         r="0.45"
         id="circle604" />
      <circle
         style="stroke:none"
         cx="7.047"
         cy="5.049"
         r="0.45"
         id="circle606" />
      <circle
         style="stroke:none"
         cx="4.340"
         cy="0.895"
         r="0.45"
         id="circle608" />
      <circle
         style="stroke:none"
         cx="7.125"
         cy="0.340"
         r="0.45"
         id="circle610" />
      <circle
         style="stroke:none"
         cx="7.125"
         cy="10.340"
         r="0.45"
         id="circle612" />
      <circle
         style="stroke:none"
         cx="9.550"
         cy="1.049"
         r="0.45"
         id="circle614" />
      <circle
         style="stroke:none"
         cx="7.006"
         cy="2.689"
         r="0.45"
         id="circle616" />
      <circle
         style="stroke:none"
         cx="8.909"
         cy="2.689"
         r="0.45"
         id="circle618" />
      <circle
         style="stroke:none"
         cx="9.315"
         cy="4.407"
         r="0.45"
         id="circle620" />
      <circle
         style="stroke:none"
         cx="7.820"
         cy="3.870"
         r="0.45"
         id="circle622" />
      <circle
         style="stroke:none"
         cx="8.270"
         cy="5.948"
         r="0.45"
         id="circle624" />
      <circle
         style="stroke:none"
         cx="7.973"
         cy="7.428"
         r="0.45"
         id="circle626" />
      <circle
         style="stroke:none"
         cx="9.342"
         cy="8.072"
         r="0.45"
         id="circle628" />
      <circle
         style="stroke:none"
         cx="8.206"
         cy="9.315"
         r="0.45"
         id="circle630" />
      <circle
         style="stroke:none"
         cx="9.682"
         cy="9.475"
         r="0.45"
         id="circle632" />
      <circle
         style="stroke:none"
         cx="-0.318"
         cy="9.475"
         r="0.45"
         id="circle634" />
      <circle
         style="stroke:none"
         cx="9.688"
         cy="6.186"
         r="0.45"
         id="circle636" />
      <circle
         style="stroke:none"
         cx="-0.312"
         cy="6.186"
         r="0.45"
         id="circle638" />
      <circle
         style="stroke:none"
         cx="3.379"
         cy="6.296"
         r="0.45"
         id="circle640" />
      <circle
         style="stroke:none"
         cx="2.871"
         cy="8.204"
         r="0.45"
         id="circle642" />
      <circle
         style="stroke:none"
         cx="4.59"
         cy="8.719"
         r="0.45"
         id="circle644" />
      <circle
         style="stroke:none"
         cx="3.181"
         cy="9.671"
         r="0.45"
         id="circle646" />
      <circle
         style="stroke:none"
         cx="3.181"
         cy="-0.329"
         r="0.45"
         id="circle648" />
      <circle
         style="stroke:none"
         cx="5.734"
         cy="7.315"
         r="0.45"
         id="circle650" />
      <circle
         style="stroke:none"
         cx="6.707"
         cy="6.513"
         r="0.45"
         id="circle652" />
      <circle
         style="stroke:none"
         cx="5.730"
         cy="9.670"
         r="0.45"
         id="circle654" />
      <circle
         style="stroke:none"
         cx="5.730"
         cy="-0.330"
         r="0.45"
         id="circle656" />
      <circle
         style="stroke:none"
         cx="6.535"
         cy="8.373"
         r="0.45"
         id="circle658" />
      <circle
         style="stroke:none"
         cx="4.37"
         cy="7.154"
         r="0.45"
         id="circle660" />
      <circle
         style="stroke:none"
         cx="0.622"
         cy="7.25"
         r="0.45"
         id="circle662" />
      <circle
         style="stroke:none"
         cx="0.831"
         cy="5.679"
         r="0.45"
         id="circle664" />
      <circle
         style="stroke:none"
         cx="1.257"
         cy="8.519"
         r="0.45"
         id="circle666" />
      <circle
         style="stroke:none"
         cx="1.989"
         cy="6.877"
         r="0.45"
         id="circle668" />
      <circle
         style="stroke:none"
         cx="0.374"
         cy="3.181"
         r="0.45"
         id="circle670" />
      <circle
         style="stroke:none"
         cx="10.374"
         cy="3.181"
         r="0.45"
         id="circle672" />
      <circle
         style="stroke:none"
         cx="1.166"
         cy="1.664"
         r="0.45"
         id="circle674" />
      <circle
         style="stroke:none"
         cx="1.151"
         cy="0.093"
         r="0.45"
         id="circle676" />
      <circle
         style="stroke:none"
         cx="1.151"
         cy="10.093"
         r="0.45"
         id="circle678" />
      <circle
         style="stroke:none"
         cx="1.302"
         cy="4.451"
         r="0.45"
         id="circle680" />
      <circle
         style="stroke:none"
         cx="3.047"
         cy="3.763"
         r="0.45"
         id="circle682" />
    </pattern>
    <pattern
       inkscape:collect="always"
       xlink:href="#circle-8"
       preserveAspectRatio="xMidYMid"
       id="pattern35-2"
       patternTransform="translate(1007.349,-408.24665)"
       x="0"
       y="0"
       width="20"
       height="20" />
    <pattern
       patternUnits="userSpaceOnUse"
       width="10"
       height="10"
       patternTransform="translate(307.92203,-100.78567)"
       preserveAspectRatio="xMidYMid"
       id="circle-8"
       x="0"
       y="0"
       inkscape:label="Circle">
      <circle
         style="display:inline;fill:#000000;fill-opacity:1;stroke-width:6;stroke-linecap:square;paint-order:markers fill stroke;stop-color:#000000"
         id="path10-8"
         cx="5"
         cy="5"
         r="5" />
    </pattern>
    <pattern
       inkscape:collect="always"
       xlink:href="#circle-8-0"
       preserveAspectRatio="xMidYMid"
       id="pattern35-2-5"
       patternTransform="translate(582.94918,-517.1278)"
       x="0"
       y="0" />
  </defs>
  <g
     inkscape:label="Layer 1"
     inkscape:groupmode="layer"
     id="layer1">
    <rect
       class="preview"
       fill="url(#Checkerboard)"
       width="100"
       height="100"
       x="497.35663"
       y="408.82944"
       id="rect1021"
       style="fill:url(#pattern33);fill-opacity:1" />
    <rect
       fill="#ffffff"
       width="100"
       height="100"
       x="615.02716"
       y="411.65787"
       id="rect1031" />
    <rect
       class="preview"
       fill="url(#Packedcircles)"
       width="100"
       height="100"
       x="615.02716"
       y="411.65787"
       id="rect1033"
       style="fill:url(#pattern96371)" />
    <rect
       fill="#ffffff"
       width="100"
       height="100"
       x="734.4342"
       y="543.71295"
       id="rect1037" />
    <rect
       class="preview"
       fill="url(#Polkadots-small)"
       width="100"
       height="100"
       x="734.4342"
       y="543.71295"
       id="rect1039"
       style="fill:url(#pattern96373)" />
    <rect
       fill="#ffffff"
       width="100"
       height="100"
       x="614.4342"
       y="543.71295"
       id="rect1049" />
    <rect
       class="preview"
       fill="url(#Polkadots-med)"
       width="100"
       height="100"
       x="614.4342"
       y="543.71295"
       id="rect1051"
       style="fill:url(#pattern96377)" />
    <rect
       fill="#ffffff"
       width="100"
       height="100"
       x="494.4342"
       y="543.71295"
       id="rect1061"
       style="display:inline" />
    <rect
       class="preview"
       fill="url(#Polkadots-large)"
       width="100"
       height="100"
       x="494.4342"
       y="543.71295"
       id="rect1063"
       style="display:inline;fill:url(#pattern96381)" />
    <rect
       style="fill:url(#pattern35-2);fill-opacity:1;stroke:none"
       width="100.67052"
       height="105.77917"
       x="724.08594"
       y="409.53903"
       id="rect19-57" />
    <rect
       style="fill:url(#pattern35-2-5);fill-opacity:1;stroke:none"
       width="100.67052"
       height="105.77917"
       x="832.69189"
       y="410.76828"
       id="rect19-57-2" />
  </g>
</svg>
